{
	"_id" 				: 	"dbhdfngmkgjfJOHNhbhxcgdfvbj",
	"firstName"			:	"John",
	"lastName"			:	"Smith",
	"email"				:	"johnsmith@email.com",
	"password"			:	"johnhandsome",
	"isAdmin"			:	false,
	"mobileNUmber"		:	"01234566789",
	"enrolments"		:	["gfdnhghgfczdvfgnvbd","hvnbgvfhbfhgvhfdvdcvf"],
	"dateTimeRegistered":	"2020-03-15t15:00:00.00Z"
},
{
	"_id" 				: 	"bfnmhjhdfhghJANEjgbvxcfgvb",
	"firstName"			:	"Jone",
	"lastName"			:	"Doe",
	"email"				:	"janedoe@email.com",
	"password"			:	"janepretty",
	"isAdmin"			:	true,
	"mobileNUmber"		:	"987654321",
	"enrolments"		:	[],
	"dateTimeRegistered":	"2021-03-16t15:00:00.00Z"
},
{
	"_id" 				: 	"gbfngmhkkCHARLESjjghjmk,",
	"firstName"			:	"Charles Neumann",
	"lastName"			:	"Ferrer",
	"email"				:	"charles.neumann.mencias.ferrer@gmail.com",
	"password"			:	"BOB",
	"isAdmin"			:	false,
	"mobileNUmber"		:	"09163734770",
	"enrolments"		:	["dgbdnhfgjhJAVAukhjdfgtgh"],
	"dateTimeRegistered":	"2023-03-16t15:00:00.00Z"
}